{
    "count": 327,
    "next": "http://cuuhomientrung.info/api/tinhnguyenvien/?limit=20&offset=20",
    "previous": null,
    "results": [
        {
            "id": 4,
            "tinh": 6,
            "tinh_display": "Hà Nội",
            "huyen": 924,
            "huyen_display": "Huyện Bát Xát",
            "xa": 1190,
            "xa_display": "Phường Hoà An",
            "name": "Đào Thu Hường",
            "status": 1,
            "location": "Hà Nội",
            "phone": "0988288483",
            "note": "",
            "thon": 11
        },
        {
            "id": 6,
            "tinh": 6,
            "tinh_display": "Hà Nội",
            "huyen": null,
            "huyen_display": "",
            "xa": null,
            "xa_display": "",
            "name": "Hoàng Phương",
            "status": 2,
            "location": "Đại học Khoa học và Công nghệ Quốc lập Đài Loan",
            "phone": "B10835015@gmail.com",
            "note": "Liên hệ mình qua email",
            "thon": null
        },
        {
            "id": 9,
            "tinh": 3,
            "tinh_display": "TP Hồ Chí Minh",
            "huyen": null,
            "huyen_display": "",
            "xa": null,
            "xa_display": "",
            "name": "Nguyễn Hồng Quân",
            "status": 1,
            "location": "TP Hồ Chí Minh",
            "phone": "0977759957",
            "note": "Mọi lúc",
            "thon": null
        },
        {
            "id": 10,
            "tinh": 3,
            "tinh_display": "TP Hồ Chí Minh",
            "huyen": null,
            "huyen_display": "",
            "xa": null,
            "xa_display": "",
            "name": "Nguyễn Thị Mỹ Duyên",
            "status": 1,
            "location": "TPHCM",
            "phone": "0348340884",
            "note": "",
            "thon": null
        },
        {
            "id": 12,
            "tinh": null,
            "tinh_display": "",
            "huyen": null,
            "huyen_display": "",
            "xa": null,
            "xa_display": "",
            "name": "La Yến Thanh",
            "status": 1,
            "location": "TP Hồ Chí Minh",
            "phone": "0987191703",
            "note": "",
            "thon": null
        },
        {
            "id": 14,
            "tinh": 3,
            "tinh_display": "TP Hồ Chí Minh",
            "huyen": null,
            "huyen_display": "",
            "xa": null,
            "xa_display": "",
            "name": "CHÂU ÁNH TUYẾT",
            "status": 2,
            "location": "TP.HCM",
            "phone": "0981878769",
            "note": "Có thể gọi bất cứ lúc nào",
            "thon": null
        },
        {
            "id": 15,
            "tinh": 6,
            "tinh_display": "Hà Nội",
            "huyen": null,
            "huyen_display": "",
            "xa": null,
            "xa_display": "",
            "name": "Đặng Hải Lộc",
            "status": 1,
            "location": "Hoàng Ngân, Hà Nội",
            "phone": "0963.520.636",
            "note": "",
            "thon": null
        },
        {
            "id": 16,
            "tinh": 2,
            "tinh_display": "Quảng Trị",
            "huyen": null,
            "huyen_display": "",
            "xa": null,
            "xa_display": "",
            "name": "Thu Anh",
            "status": 1,
            "location": "Hà Nội",
            "phone": "0339351936",
            "note": "",
            "thon": null
        },
        {
            "id": 17,
            "tinh": 3,
            "tinh_display": "TP Hồ Chí Minh",
            "huyen": null,
            "huyen_display": "",
            "xa": null,
            "xa_display": "",
            "name": "Lư Khả Ái Duy",
            "status": 1,
            "location": "312 Lạc Long Quân, phường 3, quận 11",
            "phone": "0969996107",
            "note": "",
            "thon": null
        },
        {
            "id": 18,
            "tinh": 6,
            "tinh_display": "Hà Nội",
            "huyen": null,
            "huyen_display": "",
            "xa": null,
            "xa_display": "",
            "name": "Vũ Thị Tuyết Nhung",
            "status": 1,
            "location": "Hà Nội",
            "phone": "0911295035",
            "note": "",
            "thon": null
        },
        {
            "id": 20,
            "tinh": 3,
            "tinh_display": "TP Hồ Chí Minh",
            "huyen": null,
            "huyen_display": "",
            "xa": null,
            "xa_display": "",
            "name": "TO QUANG DUY",
            "status": 2,
            "location": "Đại học Khoa học và Công nghệ Quốc lập Đài Loan",
            "phone": "",
            "note": "",
            "thon": null
        },
        {
            "id": 21,
            "tinh": 3,
            "tinh_display": "TP Hồ Chí Minh",
            "huyen": null,
            "huyen_display": "",
            "xa": null,
            "xa_display": "",
            "name": "Phạm Thị Tâm",
            "status": 1,
            "location": "21 -23 Nguyễn Biểu, quận 5, HCM",
            "phone": "0367703458",
            "note": "",
            "thon": null
        },
        {
            "id": 25,
            "tinh": 3,
            "tinh_display": "TP Hồ Chí Minh",
            "huyen": null,
            "huyen_display": "",
            "xa": null,
            "xa_display": "",
            "name": "Nguyễn Phương Yến Thảo",
            "status": 1,
            "location": "TPHCM",
            "phone": "0909160796",
            "note": "",
            "thon": null
        },
        {
            "id": 28,
            "tinh": 3,
            "tinh_display": "TP Hồ Chí Minh",
            "huyen": null,
            "huyen_display": "",
            "xa": null,
            "xa_display": "",
            "name": "Kim Ngân",
            "status": 1,
            "location": "TP Hồ Chí Minh",
            "phone": "0353732566",
            "note": "",
            "thon": null
        },
        {
            "id": 30,
            "tinh": 9,
            "tinh_display": "Đà Nẵng",
            "huyen": null,
            "huyen_display": "",
            "xa": null,
            "xa_display": "",
            "name": "Võ Phương Trâm",
            "status": 1,
            "location": "24/6 Nguyễn Đình Chiểu, Vĩnh Thọ, Nha Trang, Khánh Hoà",
            "phone": "0707054337",
            "note": "",
            "thon": null
        },
        {
            "id": 31,
            "tinh": null,
            "tinh_display": "",
            "huyen": null,
            "huyen_display": "",
            "xa": null,
            "xa_display": "",
            "name": "Huỳnh Thu Vân",
            "status": 1,
            "location": "Quận Thanh Khê - TP Đà Nẵng",
            "phone": "0933 420 224",
            "note": "",
            "thon": null
        },
        {
            "id": 32,
            "tinh": 4,
            "tinh_display": "Hà Tĩnh",
            "huyen": 31,
            "huyen_display": "Huyện Kỳ Anh",
            "xa": null,
            "xa_display": "",
            "name": "Bùi Thị Thùy",
            "status": 1,
            "location": "22 đặng Huy Tá TP Đà Nẵng",
            "phone": "0935055208",
            "note": "Người con của Quảng Bình & Hà Tĩnh",
            "thon": null
        },
        {
            "id": 33,
            "tinh": null,
            "tinh_display": "",
            "huyen": null,
            "huyen_display": "",
            "xa": null,
            "xa_display": "",
            "name": "ngọ thu minh",
            "status": 1,
            "location": "bắc giang",
            "phone": "0862748684",
            "note": "",
            "thon": null
        },
        {
            "id": 34,
            "tinh": 6,
            "tinh_display": "Hà Nội",
            "huyen": null,
            "huyen_display": "",
            "xa": null,
            "xa_display": "",
            "name": "Nguyễn Tiến Minh",
            "status": 1,
            "location": "Số 17, Ngõ 30 Kim Giang, Thanh Xuân, Hà Nội",
            "phone": "0911556248",
            "note": "Lập trình viên",
            "thon": null
        },
        {
            "id": 35,
            "tinh": null,
            "tinh_display": "",
            "huyen": null,
            "huyen_display": "",
            "xa": null,
            "xa_display": "",
            "name": "Linkhay",
            "status": 1,
            "location": "",
            "phone": "",
            "note": "",
            "thon": null
        }
    ]
}