%YAML 1.1
%TAG !u! tag:unity3d.com,2011:
--- !u!114 &11400000
MonoBehaviour:
  m_ObjectHideFlags: 0
  m_CorrespondingSourceObject: {fileID: 0}
  m_PrefabInstance: {fileID: 0}
  m_PrefabAsset: {fileID: 0}
  m_GameObject: {fileID: 0}
  m_Enabled: 1
  m_EditorHideFlags: 0
  m_Script: {fileID: 11500000, guid: 8bc96f92096347b28cd6db30df14ce78, type: 3}
  m_Name: CuuHoMienTrungEndpointConfig
  m_EditorClassIdentifier: 
  Domain: http://cuuhomientrung.info/api/
  Environment: 2
  Token: f0436d7a25718c80304f3682d8adbde02d24527a
  _endpointConfigs:
  - endpointKey: cuuho
    endpoint: cuuho/
  - endpointKey: hodan
    endpoint: hodan/
  - endpointKey: tinhnguyenvien
    endpoint: tinhnguyenvien/
  - endpointKey: tinh
    endpoint: tinh/
  - endpointKey: huyen
    endpoint: huyen/
  - endpointKey: xa
    endpoint: xa/
  - endpointKey: hodan_status
    endpoint: hodan_status/
